[]
[array([[-1.23342638e+01,  9.82808876e+00, -8.57705688e+00,
        -1.52294312e+01,  1.30722818e+01, -3.96940136e+00,
        -1.09668646e+01, -1.42327003e+01,  1.16553183e+01,
        -1.46620665e+01, -9.40179634e+00, -1.24545031e+01,
        -9.88314533e+00,  1.36275253e+01,  1.26392555e+01,
         1.23983269e+01,  1.09418516e+01, -1.46320438e+01,
        -1.43546486e+01,  1.30184431e+01,  1.12406168e+01,
        -7.83174562e+00, -1.39266911e+01, -1.47261562e+01,
        -1.25463562e+01, -1.57078962e+01, -4.96894264e+00,
         1.09073677e+01,  1.14936304e+01, -1.09554987e+01,
         1.35521421e+01,  2.40198827e+00],
       [ 5.59875679e+00, -7.61290169e+00,  3.36347771e+00,
         8.91301095e-01, -8.18835449e+00,  3.61888194e+00,
         5.90293932e+00,  5.16962051e+00, -8.40665245e+00,
         1.15301657e+00,  4.41560316e+00,  5.81891441e+00,
         4.41721296e+00, -9.15525436e+00, -5.06733608e+00,
        -5.92298603e+00, -8.41961193e+00,  5.89289999e+00,
         5.25015068e+00, -5.55317640e+00, -5.31729460e+00,
         2.79384160e+00,  5.96686983e+00,  5.59715033e+00,
         2.20825911e+00,  1.95974064e+00,  8.15712643e+00,
        -5.57020664e+00, -8.21043396e+00,  5.21844816e+00,
        -8.21670914e+00, -1.29391193e+00],
       [ 5.73196650e-01, -1.91681433e+00,  3.47320294e+00,
         1.41472888e+00, -6.36041355e+00,  3.94904375e-01,
         2.60653019e-01, -2.67892808e-01, -5.38785267e+00,
         2.16407448e-01,  4.15563911e-01,  6.82929993e-01,
         6.86491847e-01, -4.64952517e+00, -6.83139753e+00,
        -4.83366919e+00, -2.92675543e+00, -6.37330711e-01,
        -4.16972965e-01, -6.52616119e+00, -6.05397367e+00,
         3.80001521e+00,  1.75877810e+00, -8.21120322e-01,
         7.17016459e-01,  1.69137657e+00, -3.73785400e+00,
        -6.38892508e+00, -5.62943363e+00,  7.78693318e-01,
        -5.39049196e+00, -1.00527978e+00],
       [-8.99288356e-02, -3.63558918e-01,  2.25875050e-01,
         1.79054409e-01,  4.21302319e-02,  1.76411569e-02,
         3.08314651e-01,  3.47331434e-01,  3.10949236e-01,
        -2.16984645e-01, -3.04601312e-01,  1.84752613e-01,
         5.93405366e-02,  1.44106835e-01,  3.81358355e-01,
        -2.39091933e-01,  2.28508741e-01, -2.31531277e-01,
         3.79302651e-01,  3.35666269e-01, -3.74279916e-01,
        -1.87210113e-01,  1.25948101e-01,  2.09479243e-01,
        -2.44717374e-01, -2.75441080e-01,  3.46114129e-01,
        -3.40811372e-01,  1.12755299e-02, -1.94722652e-01,
         3.33002239e-01, -1.86898425e-01],
       [ 2.72859663e-01, -1.19257867e-02, -5.80863953e-02,
         2.34759301e-01,  1.39744967e-01,  9.82046723e-02,
        -8.75512064e-02,  6.19374812e-02,  8.30616653e-02,
        -2.26235509e-01, -3.97334963e-01, -3.64416093e-01,
        -2.19722658e-01, -3.20394874e-01, -7.54114985e-03,
         7.89145231e-02,  3.49601477e-01, -1.47261202e-01,
        -1.01652294e-01,  3.30505520e-01,  1.41537994e-01,
         2.00515956e-01,  1.46603554e-01, -4.72268462e-02,
         1.73629254e-01, -2.02398002e-02,  8.40518773e-02,
        -3.19767892e-02, -8.30700099e-02, -2.16452688e-01,
        -2.11799443e-01,  7.38354325e-02],
       [-2.64047801e-01, -3.91145647e-01, -1.13677651e-01,
         4.25114632e-02, -7.66673386e-02,  3.90851885e-01,
         3.93464833e-01, -3.07628661e-01,  2.24816829e-01,
         2.61133343e-01,  1.93960935e-01,  3.50138515e-01,
         3.73091549e-01,  9.21064913e-02,  4.41051424e-02,
        -5.96854687e-02, -3.08863580e-01,  1.80629164e-01,
         1.47448331e-01, -2.57334381e-01,  7.83045888e-02,
        -2.97393382e-01,  2.43858486e-01,  2.15714574e-02,
        -4.24626768e-02, -1.31563425e-01, -3.45179379e-01,
         2.08719581e-01, -6.08178675e-02,  1.77607268e-01,
        -2.47626871e-01, -3.72522742e-01]], dtype=float32), array([-3.8095517 , -0.84599924, -0.45115012, -5.2084017 ,  2.0575066 ,
       -4.0354505 , -2.252509  , -2.2790134 ,  1.8975657 , -5.87019   ,
       -2.7964416 , -2.9008055 , -3.1271307 ,  1.7141109 ,  2.602609  ,
        2.6376498 ,  0.04839477, -1.9807327 , -2.373917  ,  2.2808058 ,
        1.5009108 , -1.1216823 , -3.6624126 , -1.5135686 , -4.425905  ,
       -4.4265323 , -3.3401513 ,  1.5885935 ,  1.7250177 , -3.5221062 ,
        2.6822743 , -3.0547075 ], dtype=float32)]
[]
[array([[ 9.09637165e+00,  5.06974506e+00,  7.04290628e-01,
         9.77875233e+00, -1.55033278e+00,  1.60557377e+00,
        -4.31170893e+00, -5.35479116e+00, -1.49269748e+00,
         1.99308002e+00,  1.15176363e+01, -3.82384229e+00,
        -4.58101654e+00, -1.63742113e+00, -1.08641136e+00,
         9.32788754e+00, -4.21440601e+00, -4.28872633e+00,
        -4.48534489e+00, -4.24601030e+00, -4.65049028e+00,
         1.01521006e+01, -7.18474293e+00, -1.48753464e+00,
        -3.11278391e+00,  1.05719795e+01,  1.03205366e+01,
         9.85519409e+00, -4.15010691e+00,  1.08272767e+00,
         5.90927064e-01, -1.39974165e+00],
       [-2.60805988e+00,  1.49054062e+00,  7.04611372e-03,
        -2.66194057e+00,  6.85530472e+00,  3.03144634e-01,
         8.26722145e+00,  7.31868839e+00,  7.03479004e+00,
         4.20986533e-01, -2.31843901e+00,  7.76595116e+00,
         7.05236721e+00,  6.74634218e+00,  6.96076393e+00,
        -9.53411818e-01,  8.48523235e+00,  8.14396000e+00,
         7.66624737e+00,  8.12724590e+00,  7.69728470e+00,
        -2.85032248e+00,  6.71940088e+00,  5.72333336e+00,
         8.43457890e+00, -2.57525611e+00, -2.40637326e+00,
        -3.01966834e+00,  7.59308767e+00,  3.90718788e-01,
        -7.28529394e-02, -5.93096781e+00],
       [-6.35230827e+00, -7.63831425e+00, -5.08565092e+00,
        -6.94859743e+00, -1.54981899e+00, -6.20827866e+00,
        -2.14090490e+00, -2.26781154e+00,  1.95156410e-01,
        -6.41007948e+00, -4.68024397e+00, -1.75118327e+00,
        -9.90628779e-01,  6.08156562e-01,  1.07145004e-01,
        -7.48229885e+00, -1.72212744e+00, -3.03927445e+00,
        -1.18568230e+00, -2.57787251e+00, -4.20125932e-01,
        -7.00229025e+00, -2.91129947e+00, -3.13394517e-01,
        -1.01900327e+00, -7.11216545e+00, -6.53318310e+00,
        -7.13540125e+00, -7.53677562e-02, -5.34732103e+00,
        -6.17746115e+00, -2.15630031e+00],
       [ 4.43726397e+00, -2.84817767e+00,  2.29806566e+00,
         4.91462517e+00, -7.07581758e+00,  2.96229172e+00,
        -8.87807751e+00, -1.00226364e+01, -6.22313786e+00,
         3.25814223e+00,  5.00966609e-02, -8.34369373e+00,
        -9.81866741e+00, -6.41621017e+00, -7.18814182e+00,
        -3.55065763e-01, -8.87269974e+00, -8.47092724e+00,
        -9.07717705e+00, -8.23057175e+00, -9.30650997e+00,
         4.63708353e+00, -7.58025885e+00, -7.69163799e+00,
        -7.90946579e+00,  4.59260798e+00,  4.56938410e+00,
         4.58313179e+00, -9.14018440e+00,  1.20327175e+00,
         1.75628269e+00,  5.27717924e+00],
       [-5.80810452e+00,  1.96443886e-01, -1.54805911e+00,
        -5.20537615e+00,  1.15016718e+01, -1.67976463e+00,
         1.28946238e+01,  1.23598337e+01,  1.10616388e+01,
        -1.72059989e+00, -3.21900058e+00,  1.18887186e+01,
         1.24730902e+01,  1.12930641e+01,  1.10087814e+01,
        -2.61261678e+00,  1.31828346e+01,  1.28271675e+01,
         1.27748165e+01,  1.25407219e+01,  1.28812742e+01,
        -4.47554111e+00,  1.49745169e+01,  1.07018576e+01,
         1.28971701e+01, -3.87520242e+00, -5.13995123e+00,
        -5.24409914e+00,  1.28346214e+01, -2.06503081e+00,
        -1.89910173e+00, -1.06675129e+01],
       [ 1.14911175e+00,  2.70467138e+00, -1.43896174e+00,
         2.18709898e+00, -3.10919571e+00, -1.92268097e+00,
        -4.44932413e+00, -5.31226778e+00, -2.07967424e+00,
        -1.74781227e+00,  3.46514058e+00, -4.48638153e+00,
        -3.11173224e+00, -2.09852195e+00, -2.16462135e+00,
         2.01573181e+00, -3.99865794e+00, -5.03815031e+00,
        -3.82368731e+00, -4.97264814e+00, -2.61795282e+00,
         2.71959734e+00, -8.78876877e+00, -1.69293499e+00,
        -3.72388601e+00,  3.15114403e+00,  2.73350143e+00,
         2.12161016e+00, -2.81856108e+00, -1.86395049e+00,
        -1.92755926e+00, -3.21042752e+00],
       [ 1.00675573e+01,  5.83835459e+00,  2.97268200e+00,
         9.93822289e+00, -1.14558764e-01,  3.22218919e+00,
        -2.63041615e+00, -3.92798710e+00,  4.70487505e-01,
         3.45186043e+00,  1.30639839e+01, -2.01012659e+00,
        -2.39266443e+00,  3.03251654e-01,  3.97998184e-01,
         9.49785519e+00, -1.85950613e+00, -2.91769075e+00,
        -2.49770212e+00, -2.39286518e+00, -2.29250193e+00,
         1.13548870e+01, -6.61659288e+00,  3.33140790e-01,
        -1.44895875e+00,  1.10672436e+01,  1.09458666e+01,
         1.02606325e+01, -1.90700114e+00,  3.00191879e+00,
         3.18060589e+00,  1.32784891e+00],
       [ 4.40113115e+00, -1.24265075e+00, -2.78064191e-01,
         4.92879629e+00, -6.69501209e+00,  2.29233474e-01,
        -8.26458359e+00, -9.25483131e+00, -4.65792131e+00,
         2.59284973e-01,  2.50032663e+00, -8.38146687e+00,
        -8.16043186e+00, -4.97453880e+00, -5.79668713e+00,
        -6.51224777e-02, -8.02312756e+00, -8.05552864e+00,
        -7.69616175e+00, -7.94229221e+00, -8.08229733e+00,
         5.52748251e+00, -8.16628551e+00, -5.66693354e+00,
        -7.60798788e+00,  5.39333630e+00,  5.91832495e+00,
         5.51299381e+00, -7.40999889e+00, -7.74458170e-01,
        -4.02770489e-01, -3.66256285e+00],
       [-3.09936857e+00,  1.70672178e+00,  9.73543704e-01,
        -2.74585843e+00,  8.56759167e+00,  8.34151030e-01,
         1.02448521e+01,  9.92949009e+00,  1.00038624e+01,
         1.37741232e+00, -1.13511074e+00,  9.66036224e+00,
         1.00350437e+01,  9.89969063e+00,  9.46994305e+00,
        -3.68545204e-01,  1.16119986e+01,  1.09347010e+01,
         1.06999464e+01,  1.01483746e+01,  1.05069885e+01,
        -3.00491381e+00,  1.35260286e+01,  8.56010246e+00,
         1.06627579e+01, -2.42911386e+00, -2.36603141e+00,
        -3.07632780e+00,  9.85986900e+00,  9.84372616e-01,
         8.79997134e-01, -9.75646114e+00],
       [ 2.42807460e+00, -3.00911474e+00, -4.21355218e-01,
         2.71604395e+00, -6.40588665e+00,  6.14365876e-01,
        -7.76113272e+00, -9.50316715e+00, -5.60686255e+00,
         4.74075794e-01, -2.43351907e-01, -7.95213795e+00,
        -8.67410374e+00, -5.71259308e+00, -6.57183218e+00,
        -6.55626714e-01, -8.17011929e+00, -8.04927444e+00,
        -8.01517296e+00, -7.86451244e+00, -8.30595303e+00,
         2.86934876e+00, -7.13625050e+00, -6.66830158e+00,
        -7.27245998e+00,  2.76074696e+00,  3.42866278e+00,
         2.63223958e+00, -8.09472084e+00, -1.19806242e+00,
        -1.24950564e+00, -1.32518327e+00],
       [ 7.03429890e+00,  3.48433971e+00, -1.62839937e+00,
         7.79939127e+00,  5.42329252e-01, -1.90303111e+00,
         1.18199319e-01, -1.68102860e+00,  1.70083320e+00,
        -1.09002173e+00,  9.42917919e+00,  1.57834291e-01,
        -1.84614822e-01,  1.37448049e+00,  1.47128010e+00,
         6.64655781e+00,  1.10780329e-01, -6.90217733e-01,
        -3.10729980e-01, -2.03260526e-01, -3.40395659e-01,
         8.04562950e+00, -4.39646959e+00,  8.99822772e-01,
         9.25162733e-01,  8.31678772e+00,  7.99435854e+00,
         7.47782707e+00,  4.53741282e-01, -2.26881528e+00,
        -2.14094639e+00, -6.71469212e+00],
       [ 1.06486092e+01,  7.17707539e+00,  3.44209909e+00,
         1.03997755e+01, -1.27856863e+00,  4.19979095e+00,
        -3.58802581e+00, -5.15799427e+00, -1.17192423e+00,
         4.42831135e+00,  1.43392563e+01, -3.48351192e+00,
        -4.13981009e+00, -1.63462675e+00, -5.80791891e-01,
         1.07649164e+01, -3.71517944e+00, -4.13231850e+00,
        -4.27829647e+00, -4.04013538e+00, -4.17629814e+00,
         1.13689556e+01, -7.37704992e+00, -8.52760851e-01,
        -2.99779034e+00,  1.16333036e+01,  1.11140127e+01,
         1.09595394e+01, -3.54988623e+00,  3.86327457e+00,
         3.73618913e+00,  3.94354343e+00],
       [ 6.11751080e+00,  3.07193828e+00, -2.23586369e+00,
         6.86996174e+00,  8.76144946e-01, -2.67611313e+00,
        -1.29875231e+00, -2.17430043e+00,  1.15028346e+00,
        -1.70689023e+00,  9.47011471e+00, -6.14530563e-01,
        -1.31572235e+00,  5.83261669e-01,  1.41601205e+00,
         5.80142260e+00, -6.68694973e-01, -1.65838349e+00,
        -1.79854131e+00, -9.92240965e-01, -1.12459970e+00,
         7.52917147e+00, -4.51835585e+00,  1.35530078e+00,
        -9.66586471e-02,  7.86175203e+00,  7.93273020e+00,
         7.00489855e+00, -1.11403883e+00, -2.44038796e+00,
        -2.47916794e+00, -6.51447964e+00],
       [-8.60970116e+00, -2.86312342e+00, -2.25187135e+00,
        -8.70738792e+00,  1.02294207e+01, -2.69953752e+00,
         1.25103903e+01,  1.29868002e+01,  1.02120018e+01,
        -1.77845657e+00, -6.44923592e+00,  1.18445826e+01,
         1.18826246e+01,  1.02147017e+01,  9.98894882e+00,
        -5.23942757e+00,  1.38131361e+01,  1.31331739e+01,
         1.27871532e+01,  1.24547520e+01,  1.22025118e+01,
        -7.59231949e+00,  1.66279507e+01,  9.47563457e+00,
         1.23856945e+01, -7.43964911e+00, -8.07691860e+00,
        -8.49127769e+00,  1.21856050e+01, -1.95775545e+00,
        -2.35891223e+00, -1.13098307e+01],
       [-6.23232174e+00, -5.64593506e+00, -6.79609489e+00,
        -5.13500929e+00,  4.50910854e+00, -8.02986526e+00,
         4.94960499e+00,  5.60571957e+00,  4.22154045e+00,
        -7.40151739e+00, -9.40017796e+00,  4.22553158e+00,
         4.82142496e+00,  4.10310030e+00,  4.25642824e+00,
        -8.15216064e+00,  5.66440678e+00,  5.68355370e+00,
         5.12473726e+00,  4.91411686e+00,  5.09756136e+00,
        -5.69384861e+00,  9.78538036e+00,  4.63317919e+00,
         3.95810843e+00, -4.97772694e+00, -5.62040043e+00,
        -5.06209087e+00,  4.84782791e+00, -7.57917881e+00,
        -7.44308615e+00, -4.78593969e+00],
       [-5.64228821e+00, -4.43718338e+00, -5.81017447e+00,
        -4.86345816e+00,  4.68049860e+00, -5.99385452e+00,
         5.01554966e+00,  6.50146055e+00,  4.71380663e+00,
        -6.17034674e+00, -7.91834736e+00,  4.65568590e+00,
         4.72047853e+00,  4.86253071e+00,  4.19009876e+00,
        -6.61203146e+00,  6.68456841e+00,  5.79200840e+00,
         5.57670021e+00,  5.57149267e+00,  5.58012295e+00,
        -5.47361708e+00,  9.99166393e+00,  4.71451664e+00,
         4.77975702e+00, -5.05844450e+00, -4.59743547e+00,
        -4.42781353e+00,  5.11533070e+00, -5.81965733e+00,
        -6.02045727e+00, -3.86641979e+00],
       [-3.64490128e+00,  1.24087477e+00, -7.45056570e-01,
        -3.87394500e+00,  7.63337374e+00, -8.00126433e-01,
         9.24126148e+00,  8.34279633e+00,  8.21485901e+00,
        -5.77363610e-01, -2.98474145e+00,  8.89945316e+00,
         8.42114830e+00,  8.20274639e+00,  7.80291319e+00,
        -1.73801243e+00,  9.59327126e+00,  9.22042370e+00,
         8.66735840e+00,  8.88104343e+00,  8.93649006e+00,
        -3.71549463e+00,  8.45156479e+00,  6.84955645e+00,
         9.63789940e+00, -3.01372957e+00, -3.40989709e+00,
        -4.00171566e+00,  9.35723972e+00, -7.15660453e-01,
        -7.57195294e-01, -7.38140535e+00],
       [ 5.72887707e+00, -6.05880797e-01,  1.52679968e+00,
         6.56355381e+00, -7.79266405e+00,  1.03305602e+00,
        -1.04971275e+01, -1.11973009e+01, -5.29292679e+00,
         1.39495933e+00,  3.50731683e+00, -1.05154953e+01,
        -9.09885883e+00, -5.33599901e+00, -6.75052357e+00,
         2.19205081e-01, -1.00826197e+01, -1.00742188e+01,
        -9.03583908e+00, -1.02274523e+01, -8.93745613e+00,
         7.60333014e+00, -1.03415785e+01, -6.39492035e+00,
        -9.66732311e+00,  6.97217655e+00,  7.12587166e+00,
         7.00326490e+00, -8.93399048e+00,  3.63555461e-01,
         7.26654053e-01, -3.00375295e+00],
       [ 4.57148600e+00, -2.20764303e+00,  4.88663822e-01,
         4.42101049e+00, -5.81833410e+00, -1.91370681e-01,
        -7.87737608e+00, -9.10214138e+00, -3.65097022e+00,
         1.51116773e-01,  2.28818822e+00, -8.18676186e+00,
        -7.51882219e+00, -4.25306273e+00, -5.28290701e+00,
        -1.38277066e+00, -7.91161442e+00, -8.04862785e+00,
        -6.79285717e+00, -7.87954140e+00, -7.46827936e+00,
         4.72858715e+00, -7.49067259e+00, -5.21245384e+00,
        -7.16780186e+00,  4.54819918e+00,  4.87403393e+00,
         4.72113991e+00, -7.20006609e+00, -3.38515311e-01,
        -7.14392364e-01, -3.09780335e+00],
       [-5.94488001e+00, -5.08615398e+00, -6.60240126e+00,
        -4.84476566e+00,  5.78155804e+00, -6.90988445e+00,
         5.51060867e+00,  6.64437056e+00,  4.74655628e+00,
        -6.76026154e+00, -8.06532860e+00,  5.34791279e+00,
         5.52889538e+00,  5.51107454e+00,  5.19523144e+00,
        -6.92504072e+00,  6.63902235e+00,  6.69274044e+00,
         6.20157051e+00,  5.80752563e+00,  5.48784876e+00,
        -4.85690784e+00,  1.05746136e+01,  5.49935293e+00,
         4.78142881e+00, -4.50369930e+00, -4.80132580e+00,
        -4.56642437e+00,  5.50747585e+00, -6.93706512e+00,
        -6.55149698e+00, -4.92663288e+00],
       [-2.24047470e+00, -2.45102882e+00, -4.28556919e+00,
        -1.48627901e+00,  3.46858478e+00, -4.38935137e+00,
         3.96561289e+00,  4.85464954e+00,  3.51793408e+00,
        -4.41756344e+00, -4.44564295e+00,  3.34270406e+00,
         3.53249645e+00,  3.33461428e+00,  3.04393125e+00,
        -3.64910913e+00,  5.39363194e+00,  4.96311092e+00,
         4.71656704e+00,  4.51310444e+00,  4.09668159e+00,
        -1.43208885e+00,  8.79959011e+00,  3.01160598e+00,
         3.86921763e+00, -8.61928999e-01, -1.00250912e+00,
        -1.04042935e+00,  3.73087215e+00, -4.68738651e+00,
        -4.48710489e+00, -2.83953953e+00],
       [-6.58214474e+00, -4.68318367e+00, -1.85795546e+00,
        -5.81648493e+00, -3.92658567e+00, -2.35495615e+00,
        -2.72129536e+00, -2.94366193e+00, -1.27247620e+00,
        -2.84658718e+00, -6.06033707e+00, -2.60607076e+00,
        -7.12149858e-01, -1.08151770e+00, -1.07386792e+00,
        -8.63970089e+00, -3.00566483e+00, -2.80363750e+00,
        -7.86124885e-01, -2.96119881e+00, -3.41918349e-01,
        -6.91178417e+00, -8.23632240e+00, -1.87275159e+00,
        -1.63595998e+00, -7.21505213e+00, -6.36903763e+00,
        -5.76067352e+00, -5.57875454e-01, -1.22890592e+00,
        -1.92217457e+00, -3.16270590e+00],
       [ 1.04581146e+01,  7.26434803e+00,  4.22302628e+00,
         1.07020893e+01, -2.47219944e+00,  5.15003204e+00,
        -5.69491339e+00, -6.81004572e+00, -2.42911005e+00,
         5.45495844e+00,  1.37576132e+01, -4.91567278e+00,
        -6.04224491e+00, -2.77316523e+00, -2.04019856e+00,
         1.09492483e+01, -6.09832335e+00, -6.46266699e+00,
        -6.80791044e+00, -5.88557625e+00, -6.01531410e+00,
         1.05101156e+01, -9.59465218e+00, -2.63501430e+00,
        -4.63358688e+00,  1.10353136e+01,  1.06490850e+01,
         9.97530937e+00, -5.86012888e+00,  4.93784952e+00,
         4.58329630e+00,  3.27124500e+00],
       [ 5.91054964e+00, -3.58412534e-01,  1.14066005e+00,
         7.11445951e+00, -7.79379797e+00,  1.49813485e+00,
        -1.03927059e+01, -1.12808475e+01, -4.17900372e+00,
         1.48445666e+00,  3.32363415e+00, -1.04501772e+01,
        -9.51471901e+00, -4.76618147e+00, -6.21273422e+00,
         4.82563823e-01, -1.04392376e+01, -1.03314457e+01,
        -8.80659389e+00, -1.05661716e+01, -9.41585922e+00,
         7.05533409e+00, -1.12059727e+01, -5.60188055e+00,
        -9.97417831e+00,  6.89549971e+00,  7.20867252e+00,
         6.95841885e+00, -9.36986160e+00,  8.51621985e-01,
         6.36128843e-01, -4.18226242e-01],
       [ 5.32351351e+00,  1.32386732e+00,  3.77984834e+00,
         5.08356047e+00, -2.22810864e+00,  4.45641899e+00,
        -3.81534195e+00, -5.08071232e+00, -1.00171471e+00,
         4.74321365e+00,  5.97903919e+00, -3.42222595e+00,
        -4.58275414e+00, -1.62655354e+00, -1.67342067e+00,
         5.81747246e+00, -4.30720663e+00, -4.20903015e+00,
        -3.94941926e+00, -4.18759298e+00, -4.71147585e+00,
         6.01314402e+00, -6.10880280e+00, -2.31072092e+00,
        -3.13275599e+00,  6.19464493e+00,  5.72853136e+00,
         5.11435080e+00, -4.37421370e+00,  3.57684612e+00,
         4.07831860e+00, -1.13582182e+00],
       [ 5.46791792e+00,  3.50886917e+00,  5.59857988e+00,
         5.46584511e+00, -4.65018034e+00,  6.97978210e+00,
        -6.76810741e+00, -7.54632902e+00, -3.41678452e+00,
         6.51031065e+00,  7.51265430e+00, -5.87698603e+00,
        -6.98260307e+00, -3.86570668e+00, -3.88039351e+00,
         6.36841488e+00, -6.99923801e+00, -6.90630007e+00,
        -6.85055542e+00, -6.57638788e+00, -6.90943480e+00,
         5.85801840e+00, -8.39826870e+00, -4.34098148e+00,
        -5.62409496e+00,  5.97978497e+00,  5.87708235e+00,
         4.81007910e+00, -6.60106134e+00,  6.41985512e+00,
         6.02044058e+00,  3.47304344e+00],
       [ 6.74654770e+00,  4.92551899e+00,  2.07157755e+00,
         6.91212606e+00, -2.59595466e+00,  2.26364946e+00,
        -2.60386586e+00, -2.60201287e+00, -1.00550842e+00,
         2.78064299e+00,  7.07179356e+00, -2.20477867e+00,
        -2.77538371e+00, -1.41545725e+00, -1.97275007e+00,
         4.01918697e+00, -3.26566172e+00, -3.17305517e+00,
        -2.94493604e+00, -2.40628481e+00, -3.31464124e+00,
         7.10766459e+00, -5.92053413e+00, -2.04036975e+00,
        -2.05908418e+00,  7.14420366e+00,  6.87589979e+00,
         7.47058868e+00, -3.72762227e+00,  2.90097141e+00,
         2.54971719e+00, -6.86641991e-01],
       [-2.10834742e+00, -2.12810159e+00, -3.67108202e+00,
        -1.24139166e+00,  3.72868562e+00, -3.76573133e+00,
         4.07714128e+00,  4.79194069e+00,  3.46369004e+00,
        -3.68372059e+00, -3.64562178e+00,  3.71556330e+00,
         3.57730293e+00,  3.31497741e+00,  2.83430028e+00,
        -3.22814965e+00,  5.48434973e+00,  5.08525705e+00,
         4.80459690e+00,  5.04203415e+00,  4.72184420e+00,
        -1.24088752e+00,  9.07513142e+00,  3.40574288e+00,
         3.66575313e+00, -8.00022781e-01, -1.13834000e+00,
        -1.15491796e+00,  4.02849722e+00, -4.04216290e+00,
        -3.61366296e+00, -2.70080233e+00],
       [-2.45376444e+00,  2.31671453e+00, -3.83376002e-01,
        -2.01356101e+00,  9.71637249e+00, -3.55839819e-01,
         9.62460041e+00,  9.77536583e+00,  1.03287201e+01,
        -2.55381286e-01, -3.89754206e-01,  9.32622528e+00,
         9.26643181e+00,  1.01889076e+01,  9.91202259e+00,
        -2.84417510e-01,  1.08421526e+01,  1.05176163e+01,
         1.00854187e+01,  1.00030708e+01,  9.72154140e+00,
        -1.91106880e+00,  1.32613697e+01,  9.16862392e+00,
         9.75954342e+00, -1.32293200e+00, -1.79006362e+00,
        -2.57044172e+00,  9.48738575e+00, -1.85942590e-01,
        -3.43907923e-01, -8.95828819e+00],
       [ 7.62338400e+00,  3.92585015e+00, -7.32160211e-01,
         8.01111603e+00, -6.34260833e-01, -5.96877158e-01,
        -2.24745703e+00, -3.62263894e+00, -3.00514400e-01,
        -3.02264661e-01,  1.11120939e+01, -2.35293984e+00,
        -3.00885344e+00, -9.63211834e-01, -5.26660904e-02,
         7.78883266e+00, -2.42560911e+00, -2.53760767e+00,
        -2.99242997e+00, -2.21349359e+00, -2.54463696e+00,
         8.67890072e+00, -5.58174419e+00, -4.74918544e-01,
        -2.00197268e+00,  9.26258755e+00,  8.66042137e+00,
         8.03238106e+00, -2.80641174e+00, -1.06904829e+00,
        -1.03274512e+00, -3.89932990e+00],
       [-7.98724365e+00, -2.20299506e+00, -3.28511381e+00,
        -8.39128876e+00,  1.14260073e+01, -3.68653846e+00,
         1.29851179e+01,  1.34446602e+01,  1.09249716e+01,
        -3.37759829e+00, -5.79567289e+00,  1.17832594e+01,
         1.24482479e+01,  1.11174326e+01,  1.08193817e+01,
        -4.86434269e+00,  1.36454897e+01,  1.33681355e+01,
         1.31470203e+01,  1.23579931e+01,  1.22457638e+01,
        -7.49373865e+00,  1.66206722e+01,  1.06858625e+01,
         1.24981489e+01, -7.25085688e+00, -7.56030750e+00,
        -8.36872387e+00,  1.23088398e+01, -3.68941927e+00,
        -3.51195407e+00, -1.15883579e+01],
       [ 5.05326605e+00,  8.29951572e+00,  4.08175087e+00,
         5.33156490e+00,  4.90882874e+00,  3.57684469e+00,
         3.87829232e+00,  2.66036367e+00,  3.65574765e+00,
         4.87954140e+00,  7.63255548e+00,  4.20049047e+00,
         2.35180092e+00,  3.74562168e+00,  3.81215906e+00,
         8.96421528e+00,  4.70172024e+00,  3.69122005e+00,
         2.68109465e+00,  3.68220806e+00,  2.82203555e+00,
         6.56930733e+00,  8.52849305e-01,  3.86444640e+00,
         4.97350025e+00,  6.49932194e+00,  5.64007282e+00,
         5.51137829e+00,  3.32257223e+00,  3.60361266e+00,
         3.44327092e+00, -1.57499874e+00]], dtype=float32), array([-10.878708  ,  -9.588031  ,  -8.900695  , -10.813727  ,
        -1.881829  ,  -9.00775   ,  -0.22204837,   1.5233532 ,
        -2.8700244 ,  -9.649299  , -12.355367  ,  -0.87930644,
         0.6552773 ,  -2.6245234 ,  -2.4683766 , -11.661502  ,
        -0.50753355,  -0.03923085,   0.12139903,   0.07986337,
        -0.06960967, -11.101553  ,   0.84660244,  -1.811441  ,
        -1.5518584 , -11.438564  , -11.297069  , -10.57367   ,
        -0.49689963,  -8.809025  ,  -8.806554  ,  -1.0910484 ],
      dtype=float32)]
[]
[array([[-7.10118771e+00, -2.62428284e+00, -3.36621404e+00,
        -6.52804279e+00, -7.54800224e+00, -9.81798708e-01,
        -2.44172502e+00, -2.84925079e+00, -5.41998005e+00,
         9.13563222e-02, -7.30343437e+00, -1.79737973e+00,
        -9.70910072e-01, -3.64225674e+00, -6.82938910e+00,
        -8.18689442e+00, -6.54150295e+00, -4.33768320e+00,
        -1.64808762e+00, -3.44132721e-01, -1.19677460e+00,
         4.50462627e+00, -7.96228313e+00,  8.39785862e+00,
         1.25125992e+00, -5.02376080e+00, -4.11239243e+00,
         2.52001858e+00, -8.22782040e+00, -4.74677420e+00,
        -1.70298779e+00,  8.69655311e-01, -1.48838162e+00,
        -1.90143394e+00, -3.49310994e+00, -4.42311192e+00,
         4.88303137e+00, -4.69202328e+00, -4.62555361e+00,
        -6.56683683e+00, -4.60520029e+00, -7.21440935e+00,
        -5.53759146e+00, -5.71610987e-01, -3.47075009e+00,
        -7.55539834e-01, -6.38733721e+00, -5.94855928e+00,
        -7.26706171e+00,  1.21003695e+01, -7.14580488e+00,
         2.25587153e+00, -4.16715097e+00, -4.70429802e+00,
        -2.89544868e+00,  1.21364258e-01, -6.64304066e+00,
        -3.71523619e+00, -2.91708469e+00, -5.60973024e+00,
        -2.26077962e+00, -7.33044863e+00, -2.91341710e+00,
        -8.30195045e+00],
       [-7.51857042e-01,  3.12452579e+00, -8.51988137e-01,
        -6.38762140e+00, -6.63575840e+00,  2.29512662e-01,
        -4.46034145e+00, -6.35075283e+00, -1.61885428e+00,
        -1.04270470e+00, -5.83476639e+00,  2.49459195e+00,
         1.38652706e+00, -6.45583808e-01, -1.15119946e+00,
        -3.28923273e+00,  1.25528228e+00, -1.21175826e+00,
         1.18095171e+00,  3.52673364e+00,  3.50129628e+00,
         2.98414660e+00, -8.82149637e-01,  8.87843323e+00,
         1.22492743e+00,  6.01394713e-01,  1.99686813e+00,
         8.07632828e+00, -8.01620865e+00, -1.13056242e+00,
        -4.63663101e+00,  1.45912635e+00, -5.82694292e+00,
        -2.97638059e+00, -5.99161625e-01, -1.03463578e+00,
         9.27756500e+00,  7.37757802e-01, -7.75714338e-01,
        -9.23954189e-01, -8.06396484e-01, -7.17727375e+00,
         8.05629015e-01,  3.51976895e+00, -1.38873076e+00,
         4.26439905e+00,  9.77682233e-01, -7.00316477e+00,
        -5.83865309e+00,  9.56896210e+00,  1.57225776e+00,
         7.13250685e+00,  6.79631770e-01, -8.35336596e-02,
         2.41763687e+00, -1.29074526e+00, -3.90032619e-01,
        -9.62293267e-01,  4.04185343e+00, -8.16921175e-01,
        -5.52593136e+00, -2.04951239e+00,  2.65938377e+00,
        -3.27581000e+00],
       [-5.34290123e+00,  5.02146602e-01, -8.03277910e-01,
        -3.99723101e+00, -6.66193533e+00, -9.51835439e-02,
        -3.82615590e+00, -1.54289758e+00, -4.67360449e+00,
         6.60733402e-01, -6.59056854e+00,  5.13295174e-01,
        -3.08142114e+00, -2.47182560e+00, -6.13412762e+00,
        -5.84932327e+00, -1.15632348e-01, -4.56018925e+00,
        -2.35750890e+00,  2.43023348e+00, -1.98533857e+00,
         8.01547825e-01, -6.68503761e+00,  2.59147239e+00,
         2.44145894e+00, -2.33860779e+00, -6.37785435e-01,
         4.88846159e+00, -7.25931025e+00, -4.69571924e+00,
        -3.03745651e+00,  3.11644816e+00, -2.02434945e+00,
         2.03739285e+00, -5.19975901e+00, -5.93805838e+00,
         5.73542786e+00, -2.63032460e+00, -5.65796137e+00,
        -4.63400412e+00, -4.26124239e+00, -5.61050415e+00,
        -2.59192848e+00, -4.07104343e-01, -4.39247561e+00,
         2.08494925e+00, -1.27811790e+00, -4.50000286e+00,
        -6.35770798e+00,  2.51005030e+00, -2.78511977e+00,
         3.91815019e+00, -1.91700184e+00, -3.07856500e-01,
        -2.05872774e-01,  7.72807240e-01, -5.26552296e+00,
        -3.86272907e+00,  1.04379308e+00, -3.08478427e+00,
        -1.16630220e+00, -4.71078730e+00,  2.79807657e-01,
        -6.59249687e+00],
       [-7.32735062e+00, -2.88549399e+00, -2.54750323e+00,
        -6.35129261e+00, -7.64715195e+00,  2.15540126e-01,
        -2.28369832e+00, -3.07644963e+00, -4.87446404e+00,
         7.45844617e-02, -7.38370371e+00, -1.34078622e+00,
        -1.02235305e+00, -4.20562649e+00, -7.05344296e+00,
        -8.40380478e+00, -6.21447659e+00, -5.02970028e+00,
        -1.63579607e+00, -2.31551409e-01, -1.37641215e+00,
         5.66661310e+00, -7.93790913e+00,  9.46886158e+00,
         9.35284555e-01, -4.73643064e+00, -3.33740211e+00,
         3.30071664e+00, -8.20281410e+00, -4.92277718e+00,
        -1.26907861e+00,  8.57241213e-01, -1.19988203e+00,
        -3.09448028e+00, -3.77556252e+00, -4.91664171e+00,
         5.34841347e+00, -4.26396227e+00, -5.02024031e+00,
        -6.41830063e+00, -4.98194170e+00, -7.18306541e+00,
        -5.09567499e+00,  2.03082114e-01, -3.46391392e+00,
        -7.00688958e-01, -5.70966864e+00, -6.25399923e+00,
        -7.15880013e+00,  1.26468430e+01, -6.93985796e+00,
         2.72666860e+00, -3.30687261e+00, -5.08241320e+00,
        -2.03213573e+00,  1.55560398e+00, -6.67045546e+00,
        -4.17608213e+00, -1.89677417e+00, -5.77281046e+00,
        -1.95620942e+00, -7.89973402e+00, -2.27340794e+00,
        -8.38258553e+00],
       [ 1.20153284e+01,  1.75781655e+00,  2.79462004e+00,
         9.94317055e+00,  1.11668034e+01,  1.47921968e+00,
         3.90481067e+00,  4.78062916e+00,  4.28062677e+00,
         1.13674438e+00,  1.15569143e+01, -5.52162409e+00,
         2.96986413e+00,  3.01782727e+00,  9.83651638e+00,
         1.27293177e+01,  7.33025551e-01,  3.80732155e+00,
         8.02600861e-01, -1.62741214e-01,  2.46475601e+00,
        -5.22737861e-01,  1.18529854e+01, -7.87366331e-01,
         8.60368073e-01, -2.36923262e-01, -1.50495982e+00,
        -9.15003002e-01,  1.10160952e+01,  4.02228355e+00,
         3.05355310e+00, -9.99195218e-01,  2.12259054e+00,
        -1.96258053e-01,  3.75959039e+00,  4.56710052e+00,
        -1.73370647e+00, -1.04458511e-01,  4.70057726e+00,
         9.28900719e+00,  3.83975410e+00,  1.08276825e+01,
         3.10602188e-02, -2.55682468e+00,  9.09819221e+00,
         9.06988978e-02,  7.90189445e-01,  9.65180206e+00,
         1.13438387e+01,  1.02708089e+00,  1.89871895e+00,
        -7.42497563e-01, -1.11964130e+00,  3.39972234e+00,
        -2.41367340e+00,  5.58688819e-01,  9.64797211e+00,
         3.34370303e+00, -3.57284141e+00,  7.73321390e+00,
         3.59437180e+00,  1.19380512e+01, -2.74898863e+00,
         1.31952038e+01],
       [-6.15180826e+00,  4.59968224e-02, -5.59474587e-01,
        -4.54144382e+00, -7.22584438e+00,  2.15875804e-01,
        -4.11369610e+00, -1.53180754e+00, -3.84596634e+00,
         3.37355107e-01, -6.96405745e+00,  2.63269901e-01,
        -3.53419304e+00, -2.48098397e+00, -6.39928150e+00,
        -6.76808167e+00,  2.86664814e-01, -4.27160645e+00,
        -2.59498048e+00,  2.02229190e+00, -2.43050647e+00,
         1.24707949e+00, -7.50370646e+00,  3.15228868e+00,
         2.43829751e+00, -2.80980158e+00, -1.29998469e+00,
         4.59055376e+00, -7.43949509e+00, -4.26298189e+00,
        -3.28362107e+00,  2.95706701e+00, -2.15258169e+00,
         1.47597206e+00, -4.55087757e+00, -5.52516079e+00,
         5.59306192e+00, -2.81753087e+00, -5.37789345e+00,
        -5.35133839e+00, -3.40541816e+00, -6.18443727e+00,
        -2.57919788e+00, -5.38346171e-01, -3.89926791e+00,
         1.86231625e+00, -1.54959548e+00, -5.06937981e+00,
        -6.68413591e+00,  3.27461934e+00, -2.73985529e+00,
         3.65843463e+00, -1.82435787e+00, -3.61708701e-01,
        -5.54769993e-01,  1.20693207e+00, -6.17523766e+00,
        -3.13207293e+00,  7.32158661e-01, -3.51606965e+00,
        -1.08577752e+00, -5.35808086e+00,  1.38711840e-01,
        -7.23477650e+00],
       [ 1.19922810e+01,  1.89430737e+00,  1.67961359e+00,
         1.15265865e+01,  1.23599434e+01,  1.27016985e+00,
         4.89070511e+00,  6.60164261e+00,  3.83637238e+00,
         3.11148548e+00,  1.18932323e+01, -6.75816393e+00,
         2.83071756e+00,  5.46349478e+00,  1.07080154e+01,
         1.30226831e+01,  1.04290389e-01,  5.80712795e+00,
         2.17174530e+00,  8.60563934e-01,  2.08287120e+00,
        -1.13984489e+00,  1.16570110e+01, -4.83690262e+00,
         2.48823452e+00, -1.13819873e+00, -2.56320667e+00,
        -7.74359643e-01,  1.23918285e+01,  6.00855207e+00,
         4.52719307e+00,  5.28991222e-01,  3.80802608e+00,
         2.65886664e+00,  5.82751894e+00,  6.09955502e+00,
        -1.34691763e+00, -1.36685896e+00,  6.09246063e+00,
         1.05566301e+01,  6.30662680e+00,  1.19379587e+01,
        -1.17536855e+00, -4.17866087e+00,  7.82282400e+00,
        -1.36333898e-01,  1.87254325e-01,  1.12570868e+01,
         1.21229343e+01, -3.58836317e+00, -1.26454055e-01,
        -3.48691404e-01, -2.39480686e+00,  6.56459379e+00,
        -3.64727020e+00, -1.22879997e-01,  1.02434397e+01,
         5.32367229e+00, -4.87179756e+00,  8.90251541e+00,
         5.17340374e+00,  1.26319847e+01, -3.53861904e+00,
         1.30251350e+01],
       [ 1.26287060e+01,  1.20360780e+00,  1.04526603e+00,
         1.12769222e+01,  1.22740669e+01,  2.35798061e-01,
         5.94262409e+00,  6.61386013e+00,  3.67662311e+00,
         3.75841832e+00,  1.24339457e+01, -7.28850651e+00,
         3.87312341e+00,  5.51539087e+00,  1.13723068e+01,
         1.31107874e+01, -6.28517151e-01,  5.99234056e+00,
         2.91334295e+00, -5.88209555e-02,  2.67926049e+00,
        -1.26526654e+00,  1.19553490e+01, -4.98038960e+00,
         3.24110985e+00, -1.88501012e+00, -2.74868751e+00,
        -1.94165254e+00,  1.25184860e+01,  6.70942974e+00,
         4.96530008e+00,  1.40758276e+00,  4.65060997e+00,
         2.66365147e+00,  5.86205530e+00,  6.23784304e+00,
        -2.51137710e+00, -1.56734586e+00,  6.53367090e+00,
         1.05835409e+01,  6.46417570e+00,  1.21390610e+01,
        -1.41922700e+00, -5.38306379e+00,  7.29492664e+00,
        -5.01823783e-01, -7.41278052e-01,  1.16065331e+01,
         1.22073479e+01, -3.60849977e+00, -1.14969742e+00,
        -1.51464415e+00, -2.65390682e+00,  5.46138668e+00,
        -4.24337196e+00, -5.75845122e-01,  1.05765314e+01,
         5.45240784e+00, -5.36209679e+00,  9.81439209e+00,
         5.54174376e+00,  1.27571545e+01, -4.61007881e+00,
         1.32155752e+01],
       [ 1.18417711e+01,  2.38043094e+00,  3.41264677e+00,
         9.80362701e+00,  1.15986223e+01,  2.44158983e+00,
         2.52836418e+00,  4.43671560e+00,  4.46465158e+00,
         3.75203609e-01,  1.18154621e+01, -4.47968340e+00,
         2.24079084e+00,  2.17215371e+00,  9.36429691e+00,
         1.26832018e+01,  2.12859654e+00,  2.68762255e+00,
        -1.50417611e-01,  8.17519367e-01,  1.84007561e+00,
        -7.44794071e-01,  1.12452278e+01,  3.25823337e-01,
         1.47442162e-01,  1.14190578e+00, -1.05233699e-01,
        -5.45682311e-01,  1.08631830e+01,  2.94526958e+00,
         2.35262394e+00, -1.78648055e+00,  1.17528963e+00,
         2.87165403e-01,  2.57428360e+00,  3.02176905e+00,
        -7.34608412e-01,  1.22059894e+00,  3.12619019e+00,
         8.41279316e+00,  2.94671345e+00,  1.04390068e+01,
         1.19768000e+00, -8.59821796e-01,  9.24592400e+00,
         3.81963968e-01,  1.83235264e+00,  9.93102264e+00,
         1.18198500e+01,  1.40128160e+00,  3.17189479e+00,
        -6.37877062e-02,  4.40443486e-01,  3.17592525e+00,
        -1.34044671e+00,  1.65333629e+00,  8.83905411e+00,
         1.95863652e+00, -2.08530307e+00,  7.27457714e+00,
         3.26191378e+00,  1.16774712e+01, -1.53463924e+00,
         1.29261341e+01],
       [-6.04593134e+00,  1.60328239e-01, -4.25723702e-01,
        -4.59957981e+00, -7.15818548e+00,  4.11511034e-01,
        -4.46588993e+00, -2.19489813e+00, -4.34095860e+00,
         4.41288769e-01, -7.25932312e+00,  4.27123189e-01,
        -3.51862025e+00, -2.41992474e+00, -6.30720520e+00,
        -6.52404451e+00, -4.69738990e-02, -4.71544886e+00,
        -2.56475830e+00,  2.32682204e+00, -2.29737186e+00,
         1.40462208e+00, -7.20626497e+00,  3.89188623e+00,
         1.99232769e+00, -2.16302180e+00, -7.46270001e-01,
         4.39900351e+00, -7.83930731e+00, -4.71466160e+00,
        -3.27038598e+00,  3.02911329e+00, -1.99344063e+00,
         1.82936323e+00, -4.95601225e+00, -5.70012665e+00,
         5.67605543e+00, -2.29857922e+00, -5.66244936e+00,
        -4.76929092e+00, -3.79539609e+00, -6.33503485e+00,
        -2.11306500e+00, -5.61708450e-01, -3.55274129e+00,
         1.75442135e+00, -1.16041958e+00, -5.05336952e+00,
        -6.68104029e+00,  3.63735604e+00, -2.55517220e+00,
         4.12136459e+00, -1.37736440e+00, -2.59294957e-01,
         1.89038124e-02,  1.44812095e+00, -5.81446362e+00,
        -3.45845819e+00,  1.50899291e+00, -3.58368802e+00,
        -1.21503305e+00, -4.87900209e+00,  5.61180472e-01,
        -6.92119265e+00],
       [-4.82043457e+00,  1.89886665e+00, -2.18290940e-01,
        -8.12191296e+00, -8.55562305e+00,  8.36158156e-01,
        -4.34320688e+00, -5.49363422e+00, -3.23354578e+00,
        -4.43827927e-01, -8.14024162e+00,  2.17446160e+00,
         2.52028883e-01, -3.21352983e+00, -5.01970482e+00,
        -6.36914968e+00, -2.81346297e+00, -3.22559357e+00,
        -3.04872841e-01,  3.28788018e+00,  1.60230660e+00,
         6.38594675e+00, -5.14311600e+00,  1.15810223e+01,
         1.33432901e+00,  1.22077592e-01,  1.67321253e+00,
         7.12161636e+00, -8.94591141e+00, -3.24219012e+00,
        -3.35876679e+00,  1.75477266e+00, -4.12682247e+00,
        -3.14544415e+00, -2.83082652e+00, -3.26684237e+00,
         8.65256119e+00,  1.05467331e+00, -3.53794217e+00,
        -3.99747252e+00, -3.65151119e+00, -8.70743465e+00,
        -2.98695475e-01,  4.17906237e+00, -2.59692812e+00,
         3.06874657e+00, -2.59641361e+00, -8.06058884e+00,
        -7.69537163e+00,  1.39341211e+01, -3.31629467e+00,
         6.58087873e+00,  9.79683757e-01, -3.80778265e+00,
         2.54256845e+00,  4.99395907e-01, -4.35574293e+00,
        -2.83708143e+00,  3.63439512e+00, -3.66197658e+00,
        -3.92758799e+00, -5.44391966e+00,  2.49473214e+00,
        -6.61384678e+00],
       [ 1.15272369e+01,  2.11546826e+00,  1.97715521e+00,
         1.11998663e+01,  1.17972383e+01,  1.50912261e+00,
         4.61313820e+00,  5.95953274e+00,  4.31876278e+00,
         2.60994196e+00,  1.16347990e+01, -6.97005177e+00,
         2.52223206e+00,  5.79842567e+00,  9.98327923e+00,
         1.28758221e+01,  7.41058171e-01,  5.95143270e+00,
         1.87069607e+00,  9.23416436e-01,  1.76786041e+00,
        -6.68246865e-01,  1.12620001e+01, -5.10259342e+00,
         2.27135682e+00, -1.14171326e+00, -2.25233483e+00,
        -7.03708172e-01,  1.17411823e+01,  6.32764912e+00,
         4.13937521e+00,  3.16774607e-01,  3.78228068e+00,
         2.33439851e+00,  5.67523289e+00,  6.38674736e+00,
        -1.45130432e+00, -1.35416806e+00,  6.24338818e+00,
         1.01943998e+01,  6.45417786e+00,  1.14687500e+01,
        -1.00015712e+00, -4.16589022e+00,  8.25790787e+00,
        -2.82709211e-01,  2.87881136e-01,  1.09547262e+01,
         1.16137180e+01, -3.82468629e+00,  2.80645519e-01,
        -3.13654274e-01, -2.22361779e+00,  7.20310068e+00,
        -3.69158173e+00,  4.08483624e-01,  1.01622925e+01,
         5.72262144e+00, -4.32498980e+00,  8.88360500e+00,
         4.93333292e+00,  1.20686970e+01, -3.53062725e+00,
         1.28939648e+01],
       [ 1.19745255e+01,  2.51894212e+00,  1.52293575e+00,
         1.14725399e+01,  1.20777683e+01,  9.80843842e-01,
         4.49373388e+00,  6.22534275e+00,  3.42824554e+00,
         2.76539922e+00,  1.20251827e+01, -7.36466455e+00,
         2.33178186e+00,  5.52255440e+00,  1.03407021e+01,
         1.29877205e+01,  7.28648365e-01,  5.34177303e+00,
         1.82391524e+00,  1.11991370e+00,  1.78649318e+00,
        -1.65392315e+00,  1.14526777e+01, -5.04588270e+00,
         2.59553599e+00, -1.48606110e+00, -2.40773821e+00,
        -6.92481756e-01,  1.20271826e+01,  6.06906319e+00,
         4.12388277e+00,  4.57798123e-01,  3.42301345e+00,
         3.14020801e+00,  5.53772831e+00,  5.65527010e+00,
        -1.04799092e+00, -1.45997012e+00,  5.91805410e+00,
         1.05994673e+01,  6.30992556e+00,  1.18189030e+01,
        -1.16041040e+00, -4.08291483e+00,  7.30233812e+00,
         1.19940788e-01,  2.25635126e-01,  1.11185131e+01,
         1.20577030e+01, -3.92214417e+00,  5.03133714e-01,
         5.37706353e-02, -2.61251831e+00,  6.96855354e+00,
        -4.12851381e+00, -2.42528096e-01,  1.04675655e+01,
         5.24880695e+00, -4.25343180e+00,  8.90529633e+00,
         5.37030602e+00,  1.26014557e+01, -3.66163230e+00,
         1.31462746e+01],
       [ 1.20922728e+01,  2.46320701e+00,  3.23224783e+00,
         1.01874838e+01,  1.15370426e+01,  1.99317706e+00,
         3.34339094e+00,  4.83219528e+00,  4.47218990e+00,
         3.84752959e-01,  1.14473467e+01, -4.66294527e+00,
         2.43643427e+00,  2.48937726e+00,  9.14297771e+00,
         1.29784498e+01,  1.97791862e+00,  2.66069508e+00,
         1.56021789e-01,  7.22863436e-01,  1.99155354e+00,
        -9.08978105e-01,  1.12610559e+01,  1.82580724e-02,
         2.02082634e-01,  7.16960132e-01, -4.37722713e-01,
        -6.38788760e-01,  1.10586281e+01,  2.98508811e+00,
         2.74111962e+00, -1.60305560e+00,  1.30211771e+00,
         6.18817270e-01,  2.93248653e+00,  3.23198986e+00,
        -9.33231533e-01,  5.39499581e-01,  3.48365068e+00,
         8.74029446e+00,  2.78170943e+00,  1.07098198e+01,
         6.36140585e-01, -1.44466722e+00,  8.83208656e+00,
         6.17142856e-01,  1.51147115e+00,  9.91095161e+00,
         1.16781788e+01,  9.35137212e-01,  3.10218239e+00,
         2.60037273e-01, -4.67513174e-01,  3.65705872e+00,
        -1.75085068e+00,  9.93227720e-01,  8.82729721e+00,
         2.27581978e+00, -2.82542491e+00,  7.63878489e+00,
         3.30649209e+00,  1.21067085e+01, -1.82035255e+00,
         1.31351995e+01],
       [ 1.24202776e+01,  2.69029069e+00,  2.23346639e+00,
         1.01162806e+01,  1.14611473e+01,  1.30464458e+00,
         2.62968826e+00,  4.21969509e+00,  3.83966279e+00,
         4.75104004e-01,  1.18587265e+01, -5.21539497e+00,
         2.44266605e+00,  3.50007367e+00,  1.00585251e+01,
         1.33145819e+01,  2.20918465e+00,  3.96688366e+00,
         2.83665389e-01,  8.61482739e-01,  2.00434780e+00,
        -9.45975661e-01,  1.15715590e+01, -6.08541369e-01,
         5.22218764e-01,  3.83608975e-02, -9.56829965e-01,
        -1.32292703e-01,  1.08338509e+01,  4.27463818e+00,
         2.24963593e+00, -1.93888330e+00,  7.99388885e-01,
         5.35804451e-01,  4.26025057e+00,  4.34944153e+00,
        -7.90239811e-01, -2.43675172e-01,  4.30731058e+00,
         9.62022209e+00,  4.30984211e+00,  1.09025764e+01,
         1.97127774e-01, -1.96837091e+00,  8.61181736e+00,
         6.40975595e-01,  1.38600302e+00,  9.98239803e+00,
         1.14181671e+01,  9.47477758e-01,  3.44977498e+00,
         1.33555502e-01, -5.18328369e-01,  4.02728462e+00,
        -2.50609827e+00,  3.67994726e-01,  9.95392799e+00,
         3.41682911e+00, -3.34055495e+00,  8.00167751e+00,
         3.33330059e+00,  1.24362783e+01, -2.35513830e+00,
         1.36763220e+01],
       [-4.79347277e+00,  1.53901899e+00, -1.78222477e+00,
        -7.81365156e+00, -9.11146164e+00,  1.15739393e+00,
        -4.58827925e+00, -5.50135183e+00, -3.10636234e+00,
        -7.68690705e-01, -8.26556492e+00,  2.33513355e+00,
         4.55001742e-01, -2.48411560e+00, -4.15052509e+00,
        -5.98695040e+00, -1.97632253e+00, -2.60154843e+00,
         5.43027937e-01,  2.90653372e+00,  2.29628253e+00,
         5.22888565e+00, -4.57009554e+00,  9.97378063e+00,
         1.67560172e+00,  8.03782165e-01,  1.78887689e+00,
         5.73162460e+00, -9.26979542e+00, -3.13332152e+00,
        -4.10013247e+00,  2.19966030e+00, -4.59711218e+00,
        -1.81935573e+00, -2.34025431e+00, -2.67531133e+00,
         7.64953279e+00,  1.28064632e+00, -2.90438747e+00,
        -3.81743979e+00, -3.08654976e+00, -9.12680721e+00,
         5.69233775e-01,  3.76365709e+00, -1.30595183e+00,
         2.36794496e+00, -1.95842922e+00, -7.89116096e+00,
        -8.10677910e+00,  1.17462854e+01, -1.22316325e+00,
         5.18355465e+00,  1.47257125e+00, -3.69292617e+00,
         2.55324268e+00,  2.82729417e-01, -3.84174299e+00,
        -2.51822853e+00,  3.22188854e+00, -3.09954929e+00,
        -4.75879669e+00, -5.72351646e+00,  1.37275589e+00,
        -6.32652760e+00],
       [ 1.22338495e+01,  2.20967197e+00,  1.21170259e+00,
         1.20827818e+01,  1.24566345e+01,  2.36281991e-01,
         5.54230642e+00,  7.16572332e+00,  3.79663014e+00,
         3.71672654e+00,  1.27698278e+01, -6.52411890e+00,
         3.24085450e+00,  4.55689907e+00,  1.07337513e+01,
         1.36382618e+01, -3.76999706e-01,  5.05474281e+00,
         2.45850420e+00,  6.57292306e-01,  2.43227029e+00,
        -1.85916030e+00,  1.19694433e+01, -4.28936195e+00,
         2.66897321e+00, -9.44437444e-01, -2.05439401e+00,
        -8.79313231e-01,  1.28213263e+01,  5.59045410e+00,
         4.70594740e+00,  1.10082185e+00,  4.56274557e+00,
         3.25193071e+00,  4.86708593e+00,  5.20568371e+00,
        -1.67683840e+00, -1.02726805e+00,  5.53164196e+00,
         1.04399929e+01,  5.65614653e+00,  1.23714972e+01,
        -8.63363385e-01, -4.57770872e+00,  7.72160339e+00,
        -7.51047442e-03, -4.68269765e-01,  1.19139080e+01,
         1.25371208e+01, -3.60741401e+00, -7.12617114e-02,
        -4.83090401e-01, -2.04733157e+00,  6.19572401e+00,
        -3.64008737e+00, -3.11665922e-01,  1.07378283e+01,
         4.77517462e+00, -4.44921541e+00,  9.61438179e+00,
         5.90365601e+00,  1.28141527e+01, -3.38137197e+00,
         1.33979998e+01],
       [ 1.24337769e+01,  1.68772566e+00,  1.41181862e+00,
         1.14219999e+01,  1.22949734e+01,  2.18607068e-01,
         5.52372074e+00,  6.77603722e+00,  3.78452325e+00,
         3.68016171e+00,  1.22748203e+01, -6.18915796e+00,
         3.36094570e+00,  5.04072189e+00,  1.09195881e+01,
         1.33080444e+01, -4.15204227e-01,  5.45026731e+00,
         2.77074814e+00,  8.29599351e-02,  2.41334176e+00,
        -1.53831255e+00,  1.16138630e+01, -3.98887181e+00,
         3.18570399e+00, -1.07762885e+00, -1.96914947e+00,
        -1.00225389e+00,  1.25002832e+01,  5.75602913e+00,
         5.12534618e+00,  1.46209979e+00,  4.73627234e+00,
         2.93381500e+00,  4.63142920e+00,  5.52193689e+00,
        -2.03094149e+00, -9.56620812e-01,  5.63057852e+00,
         1.05472307e+01,  5.91388798e+00,  1.21018124e+01,
        -9.00731683e-01, -4.66135406e+00,  8.09896088e+00,
        -1.14607535e-01, -5.46035528e-01,  1.12971077e+01,
         1.20277929e+01, -3.31246352e+00, -6.71728551e-01,
        -9.56381977e-01, -2.11576509e+00,  5.45155287e+00,
        -3.67873597e+00, -4.68721598e-01,  1.02289276e+01,
         4.64080238e+00, -4.67152071e+00,  9.50381279e+00,
         5.88686705e+00,  1.27439022e+01, -3.47461534e+00,
         1.35920992e+01],
       [ 1.23697681e+01,  2.64977169e+00,  1.56395018e+00,
         1.15840034e+01,  1.25532923e+01,  2.65798718e-01,
         5.45398808e+00,  6.75690842e+00,  3.65180278e+00,
         3.17217493e+00,  1.21765909e+01, -6.15803814e+00,
         3.33424950e+00,  4.61835814e+00,  1.06966248e+01,
         1.32799149e+01,  8.15161988e-02,  4.89770031e+00,
         2.16693354e+00,  1.17976701e+00,  2.44114137e+00,
        -1.65220988e+00,  1.18136311e+01, -4.07336712e+00,
         2.92724490e+00, -7.78311849e-01, -1.69034064e+00,
        -7.46010780e-01,  1.23185806e+01,  5.34436178e+00,
         4.64930868e+00,  1.10053372e+00,  3.91530132e+00,
         3.49368382e+00,  4.80814266e+00,  5.29308653e+00,
        -1.34799850e+00, -7.93551743e-01,  5.43065882e+00,
         1.05276575e+01,  5.28288937e+00,  1.22138433e+01,
        -3.01073313e-01, -4.37588692e+00,  7.18646193e+00,
         6.29176855e-01,  3.20860416e-01,  1.12530985e+01,
         1.24439669e+01, -3.90911388e+00,  4.97686416e-01,
         4.52682078e-02, -1.73353219e+00,  5.84029007e+00,
        -3.11966681e+00, -4.51409429e-01,  1.03493910e+01,
         4.11108112e+00, -4.12417698e+00,  9.08758736e+00,
         5.61647797e+00,  1.26192789e+01, -3.23070264e+00,
         1.35874119e+01],
       [ 1.18644409e+01,  1.75413764e+00,  2.04054713e+00,
         1.10292645e+01,  1.19122705e+01,  9.77575541e-01,
         5.15966415e+00,  6.56967068e+00,  4.27848196e+00,
         3.44685864e+00,  1.18757582e+01, -6.85095835e+00,
         3.15958834e+00,  5.49500084e+00,  1.06743517e+01,
         1.25700941e+01, -7.56882846e-01,  5.98897505e+00,
         2.39638591e+00,  5.51311851e-01,  1.97166741e+00,
        -9.48769212e-01,  1.13799057e+01, -4.47860765e+00,
         2.40795398e+00, -1.07472229e+00, -2.21465349e+00,
        -7.95881748e-01,  1.20395765e+01,  6.29408884e+00,
         4.74034595e+00,  9.06265676e-01,  4.19368315e+00,
         2.53270388e+00,  5.74533463e+00,  6.10378170e+00,
        -1.43695080e+00, -1.45541990e+00,  6.40858126e+00,
         1.01505308e+01,  6.16356850e+00,  1.20554123e+01,
        -1.17496610e+00, -4.08409262e+00,  7.93045568e+00,
        -1.92982912e-01, -2.08296686e-01,  1.09316988e+01,
         1.20448999e+01, -3.36595750e+00, -3.80057901e-01,
        -7.63184428e-01, -2.15350437e+00,  6.35874939e+00,
        -3.77473116e+00,  5.03772914e-01,  1.00270948e+01,
         5.57175541e+00, -4.75752974e+00,  9.01714134e+00,
         5.50094175e+00,  1.23045607e+01, -3.92099833e+00,
         1.27970238e+01],
       [ 1.19778910e+01,  2.35782838e+00,  1.55563962e+00,
         1.13372173e+01,  1.25355988e+01,  6.49262309e-01,
         4.84666777e+00,  6.73317719e+00,  3.83020973e+00,
         2.74036527e+00,  1.24248867e+01, -6.55892229e+00,
         2.67117405e+00,  4.51583242e+00,  1.06137409e+01,
         1.28970098e+01,  5.22996128e-01,  5.14019251e+00,
         1.99312353e+00,  1.15821946e+00,  1.64668703e+00,
        -2.25395608e+00,  1.14740334e+01, -4.95833969e+00,
         2.54080248e+00, -7.89661169e-01, -1.71199858e+00,
        -6.11132145e-01,  1.21382227e+01,  5.47660398e+00,
         4.59749508e+00,  7.11019337e-01,  3.79121447e+00,
         3.42839980e+00,  4.63941240e+00,  5.46511364e+00,
        -1.55715036e+00, -7.35118508e-01,  5.23314714e+00,
         9.92572784e+00,  5.72233820e+00,  1.18648052e+01,
        -5.94275773e-01, -4.47847509e+00,  7.55428362e+00,
         5.90200603e-01,  5.50840616e-01,  1.13805380e+01,
         1.21970673e+01, -4.29615021e+00,  4.09409523e-01,
        -9.46167037e-02, -1.49474216e+00,  6.25983143e+00,
        -3.24423623e+00, -3.17714036e-01,  9.92276478e+00,
         4.49503279e+00, -4.27087069e+00,  9.15103626e+00,
         5.40331984e+00,  1.24082394e+01, -2.99670815e+00,
         1.31755972e+01],
       [-7.28023481e+00, -2.70526099e+00, -2.44682646e+00,
        -6.34542704e+00, -7.59591055e+00,  4.65871662e-01,
        -2.24015212e+00, -2.80881310e+00, -4.64796066e+00,
         1.43244982e-01, -7.29148245e+00, -8.67652833e-01,
        -9.72007871e-01, -4.34128189e+00, -7.10309696e+00,
        -8.05757523e+00, -6.27602768e+00, -5.30928516e+00,
        -1.61452842e+00,  2.16136239e-02, -6.22020185e-01,
         6.18029308e+00, -7.80592155e+00,  1.09333096e+01,
         1.03762650e+00, -4.12194204e+00, -2.24938679e+00,
         3.91538262e+00, -8.19561672e+00, -5.45933199e+00,
        -1.66122365e+00,  1.08071029e+00, -1.17204356e+00,
        -2.82153583e+00, -4.38024759e+00, -5.21123266e+00,
         5.88714027e+00, -3.26393008e+00, -5.40751696e+00,
        -6.40842009e+00, -5.16672468e+00, -7.15285826e+00,
        -4.31740046e+00,  1.05207789e+00, -3.03238654e+00,
        -5.57820320e-01, -5.89560986e+00, -6.31330776e+00,
        -7.26434469e+00,  1.37758856e+01, -6.88195181e+00,
         3.11636448e+00, -2.61738110e+00, -5.56077766e+00,
        -1.52334428e+00,  1.65390599e+00, -6.79145384e+00,
        -4.48869181e+00, -1.58118391e+00, -5.52790403e+00,
        -1.98385692e+00, -7.76768112e+00, -1.81950641e+00,
        -8.29342270e+00],
       [ 1.31829700e+01, -1.28921747e+00, -2.59577799e+00,
         1.49739246e+01,  1.51041355e+01, -1.77016163e+00,
         9.12797928e+00,  9.70224380e+00,  6.66107118e-01,
         5.53916407e+00,  1.47008772e+01, -8.13753700e+00,
         4.00958538e+00,  2.95169711e+00,  1.10623560e+01,
         1.41386833e+01, -5.28730392e+00,  2.29870629e+00,
         2.59480262e+00, -2.48008132e+00,  1.93545151e+00,
        -3.97617149e+00,  1.25140190e+01, -3.18615341e+00,
         4.38500404e+00, -4.03691626e+00, -5.42200565e+00,
        -3.90743089e+00,  1.56774445e+01,  3.01139331e+00,
         8.55507183e+00,  1.65668976e+00,  7.54485416e+00,
         5.86274529e+00,  2.57463670e+00,  2.78625321e+00,
        -4.54939699e+00, -3.72283506e+00,  2.89299440e+00,
         1.05302172e+01,  2.96569324e+00,  1.46869278e+01,
        -4.11478376e+00, -8.33268642e+00,  4.96399641e+00,
        -3.00529075e+00, -4.57615948e+00,  1.49699059e+01,
         1.46755056e+01, -1.55395293e+00, -3.47014236e+00,
        -3.37219238e+00, -4.55938673e+00,  4.19765043e+00,
        -6.37087917e+00, -1.07801378e+00,  1.02390566e+01,
         2.74656200e+00, -7.44688463e+00,  1.06388569e+01,
         8.89588165e+00,  1.31603394e+01, -7.08261871e+00,
         1.44663887e+01],
       [ 1.20219793e+01,  2.12860656e+00,  2.91108155e+00,
         9.78766251e+00,  1.09245958e+01,  1.57839370e+00,
         3.22367883e+00,  4.25310183e+00,  4.21871614e+00,
         9.27256703e-01,  1.12666903e+01, -5.17533731e+00,
         2.51829076e+00,  2.69195628e+00,  9.81297112e+00,
         1.28566256e+01,  1.34285986e+00,  3.44750381e+00,
         5.60067952e-01,  4.50265288e-01,  2.48525929e+00,
        -6.00036263e-01,  1.16500931e+01, -5.48691809e-01,
         4.86979038e-01, -1.86442554e-01, -1.10855591e+00,
        -7.54386008e-01,  1.04610548e+01,  4.08247042e+00,
         2.57771301e+00, -1.51466310e+00,  1.23262274e+00,
        -3.55421215e-01,  3.54196668e+00,  3.94368887e+00,
        -1.39723945e+00,  8.36879909e-02,  4.12141323e+00,
         9.20784092e+00,  3.79445767e+00,  1.03722734e+01,
         4.08414513e-01, -1.91617453e+00,  9.29661942e+00,
         1.81433544e-01,  9.62799191e-01,  9.42645168e+00,
         1.08046532e+01,  1.26523507e+00,  2.36320615e+00,
        -1.55585617e-01, -8.45130742e-01,  3.50841284e+00,
        -2.50793958e+00,  1.02858245e+00,  9.88176441e+00,
         2.95075369e+00, -3.13732743e+00,  7.39359474e+00,
         3.27442050e+00,  1.18907099e+01, -2.35985541e+00,
         1.30568914e+01],
       [ 1.17840252e+01,  2.25255990e+00,  1.76897895e+00,
         1.10728216e+01,  1.21979847e+01,  8.51418555e-01,
         4.72304440e+00,  6.44017076e+00,  3.99458861e+00,
         2.28571701e+00,  1.17102499e+01, -6.01196241e+00,
         2.31164074e+00,  4.87637854e+00,  1.01782427e+01,
         1.26206093e+01,  1.07461262e+00,  5.12446213e+00,
         1.55289721e+00,  8.63896608e-01,  1.73703647e+00,
        -1.77050412e+00,  1.09236288e+01, -4.28068447e+00,
         1.84498537e+00, -1.81669593e-01, -1.22871470e+00,
        -3.27683568e-01,  1.17668734e+01,  5.47999573e+00,
         4.41126680e+00,  5.67036033e-01,  3.53550053e+00,
         3.16864038e+00,  4.54709625e+00,  5.42067242e+00,
        -1.13346338e+00, -2.97453612e-01,  5.15868044e+00,
         9.65505505e+00,  5.36927700e+00,  1.17320843e+01,
        -4.43180986e-02, -3.73382854e+00,  8.44741249e+00,
         6.32824779e-01,  8.72501135e-01,  1.13117886e+01,
         1.17484560e+01, -3.92016315e+00,  9.20076132e-01,
        -2.78521795e-02, -1.39895642e+00,  6.63897276e+00,
        -2.96869135e+00,  3.27342469e-03,  9.71747112e+00,
         4.36401892e+00, -3.77792430e+00,  8.84473419e+00,
         5.08519363e+00,  1.23130245e+01, -2.93919063e+00,
         1.26245213e+01],
       [-7.10124063e+00, -2.72349715e+00, -2.15245843e+00,
        -6.31268835e+00, -7.40247440e+00,  3.98544639e-01,
        -2.22776318e+00, -3.03954649e+00, -4.53418922e+00,
        -6.93529546e-02, -7.26065826e+00, -9.90005314e-01,
        -1.33461690e+00, -4.09207678e+00, -6.71328735e+00,
        -7.79236841e+00, -6.22324038e+00, -4.86468601e+00,
        -1.58783031e+00, -8.36096630e-02, -9.31798577e-01,
         6.21075058e+00, -7.63475084e+00,  9.97778034e+00,
         1.06134355e+00, -4.52460241e+00, -3.08580089e+00,
         3.70455599e+00, -7.70198965e+00, -5.10696125e+00,
        -1.33896482e+00,  7.37651110e-01, -1.17862284e+00,
        -2.79843950e+00, -4.14227009e+00, -5.13099337e+00,
         5.67740107e+00, -3.91536784e+00, -5.06317043e+00,
        -6.03844643e+00, -5.05675983e+00, -7.00194168e+00,
        -4.62008619e+00,  4.73179996e-01, -2.58804297e+00,
        -8.12059224e-01, -6.15909529e+00, -5.88921738e+00,
        -6.96454859e+00,  1.31704416e+01, -6.71441507e+00,
         3.03185654e+00, -3.32203484e+00, -5.17734671e+00,
        -2.15439558e+00,  1.29601765e+00, -6.68672371e+00,
        -4.26316643e+00, -1.93254936e+00, -5.32739019e+00,
        -1.64136779e+00, -7.12185860e+00, -2.05946159e+00,
        -8.28173733e+00],
       [-7.31943798e+00, -2.52258587e+00, -2.33593225e+00,
        -6.24094677e+00, -7.13458920e+00,  7.90986121e-01,
        -2.24340177e+00, -2.57071733e+00, -4.41004705e+00,
         7.00961128e-02, -6.94597387e+00, -9.67417121e-01,
        -1.34488785e+00, -4.22775888e+00, -7.49810839e+00,
        -8.24179077e+00, -6.21920919e+00, -5.12856293e+00,
        -1.92837393e+00,  3.44414376e-02, -1.07714796e+00,
         5.94180012e+00, -8.18705750e+00,  1.02611971e+01,
         1.18775284e+00, -4.32486773e+00, -2.71100855e+00,
         3.87622929e+00, -8.22302532e+00, -5.58432579e+00,
        -1.49353397e+00,  7.75499761e-01, -9.70196843e-01,
        -3.25148678e+00, -4.46848726e+00, -5.34269905e+00,
         6.21816969e+00, -4.11477470e+00, -5.21219492e+00,
        -6.63223219e+00, -5.11019278e+00, -6.87098455e+00,
        -4.72822666e+00,  7.80743778e-01, -3.23373628e+00,
        -9.31974471e-01, -5.87590837e+00, -5.79259968e+00,
        -7.02991772e+00,  1.36538172e+01, -6.78468084e+00,
         3.34983850e+00, -3.01230860e+00, -4.99222374e+00,
        -1.89740932e+00,  1.72001481e+00, -6.65670013e+00,
        -4.53662252e+00, -1.64626205e+00, -5.78630733e+00,
        -1.43142641e+00, -7.41293144e+00, -1.71414101e+00,
        -8.20027256e+00],
       [-7.38900375e+00, -3.00097680e+00, -2.98082876e+00,
        -6.52120781e+00, -7.24034548e+00,  9.16843638e-02,
        -1.90207195e+00, -2.89582062e+00, -5.39483213e+00,
         3.47333133e-01, -7.12030458e+00, -9.60686088e-01,
        -6.61796808e-01, -4.20000839e+00, -7.10477781e+00,
        -7.92597151e+00, -6.42350340e+00, -4.45953274e+00,
        -1.85412669e+00, -3.35918367e-01, -7.73876250e-01,
         5.85310507e+00, -8.01544666e+00,  9.99744987e+00,
         8.62618983e-01, -4.69510984e+00, -3.56520581e+00,
         3.51337361e+00, -8.03161240e+00, -4.77038288e+00,
        -1.40822613e+00,  8.88772070e-01, -1.04085410e+00,
        -3.36600757e+00, -3.78234100e+00, -4.93810177e+00,
         5.69251204e+00, -4.26187658e+00, -4.78126431e+00,
        -6.27225208e+00, -4.58960104e+00, -6.67571211e+00,
        -5.39072227e+00,  6.61737442e-01, -3.34982538e+00,
        -8.76238048e-01, -6.10565472e+00, -6.03084278e+00,
        -6.86099434e+00,  1.28493586e+01, -7.21724796e+00,
         2.73637533e+00, -3.77177668e+00, -5.03045559e+00,
        -2.20330048e+00,  1.44708097e+00, -6.77718592e+00,
        -4.08608961e+00, -2.25454736e+00, -5.70548296e+00,
        -1.87468815e+00, -7.77377939e+00, -2.20000291e+00,
        -8.13358498e+00],
       [ 1.15246401e+01,  2.49008060e+00,  1.51375723e+00,
         1.14917879e+01,  1.21673861e+01,  2.01587871e-01,
         4.60711575e+00,  6.51189995e+00,  3.84187031e+00,
         2.57008362e+00,  1.21010294e+01, -5.77960300e+00,
         2.31730747e+00,  3.95792794e+00,  1.02393627e+01,
         1.30459824e+01,  1.04261672e+00,  4.37680531e+00,
         1.79149032e+00,  1.13871360e+00,  1.73622775e+00,
        -2.62662816e+00,  1.10630608e+01, -4.32864141e+00,
         1.91729081e+00, -1.49499774e-01, -1.16229653e+00,
        -6.44235313e-01,  1.19257412e+01,  4.57636690e+00,
         4.32912064e+00,  3.44403863e-01,  3.98905921e+00,
         3.68519139e+00,  3.82855272e+00,  4.56654644e+00,
        -1.37800133e+00, -3.07598412e-01,  4.57941198e+00,
         9.81573009e+00,  4.50125790e+00,  1.21268988e+01,
         2.52264470e-01, -4.05080986e+00,  7.29532909e+00,
         7.26505220e-01,  1.13277674e+00,  1.14765177e+01,
         1.21941872e+01, -4.53924465e+00,  1.51331472e+00,
        -1.14511102e-01, -1.08804381e+00,  6.19724607e+00,
        -2.34971261e+00, -5.33931732e-01,  9.73854637e+00,
         3.75238276e+00, -3.53074312e+00,  8.87772751e+00,
         5.33257675e+00,  1.27455912e+01, -2.35431051e+00,
         1.30834379e+01],
       [-5.74817085e+00,  4.57601368e-01, -1.45572543e-01,
        -3.91968751e+00, -6.83737803e+00, -3.24923366e-01,
        -3.95975089e+00, -1.65084183e+00, -4.50734854e+00,
         9.19865966e-01, -6.61111641e+00,  1.52409375e-01,
        -2.89221334e+00, -2.40297699e+00, -5.75783920e+00,
        -6.05231476e+00,  1.98798962e-02, -3.82374048e+00,
        -2.25704598e+00,  1.99594128e+00, -1.98053277e+00,
         6.24153018e-01, -6.60241556e+00,  2.28320670e+00,
         2.81446362e+00, -2.45566487e+00, -1.20228744e+00,
         4.59083176e+00, -7.15397501e+00, -4.27224350e+00,
        -2.87979460e+00,  3.34245181e+00, -2.07026148e+00,
         1.93553424e+00, -4.76102400e+00, -5.36517572e+00,
         5.27281952e+00, -2.80401850e+00, -5.21039343e+00,
        -4.63347149e+00, -3.73828459e+00, -5.60926962e+00,
        -2.82518554e+00, -4.29409891e-01, -4.77827168e+00,
         1.86326468e+00, -1.39649546e+00, -4.59542179e+00,
        -5.88557625e+00,  1.79643559e+00, -3.07975912e+00,
         3.89732170e+00, -2.15298152e+00,  1.27423584e-01,
        -6.57719135e-01,  7.73709834e-01, -5.73625565e+00,
        -3.19741774e+00,  9.00205076e-01, -2.97617579e+00,
        -9.05264318e-01, -4.56919384e+00, -3.85375828e-01,
        -6.53939390e+00],
       [-5.76600647e+00, -1.05150059e-01, -6.90597534e-01,
        -4.34779072e+00, -6.86597204e+00, -1.97462037e-01,
        -3.53023529e+00, -1.39855635e+00, -4.00235796e+00,
         9.36104298e-01, -6.69400692e+00, -3.47717345e-01,
        -3.03995323e+00, -2.26801133e+00, -6.05210257e+00,
        -6.07072067e+00, -7.24057779e-02, -4.07765961e+00,
        -2.02749586e+00,  1.66188252e+00, -1.90182137e+00,
         6.47213817e-01, -6.87806559e+00,  2.29336762e+00,
         3.00293446e+00, -2.90376472e+00, -1.56106400e+00,
         3.86785173e+00, -7.27357388e+00, -4.52372360e+00,
        -2.67644119e+00,  3.47813106e+00, -1.58174896e+00,
         2.04928207e+00, -4.58563614e+00, -5.40026760e+00,
         4.94057846e+00, -2.97426677e+00, -5.12630558e+00,
        -4.68701029e+00, -3.71364141e+00, -5.84705973e+00,
        -2.73280668e+00, -8.74341369e-01, -4.15479231e+00,
         1.64438331e+00, -1.51316559e+00, -4.31439400e+00,
        -6.81110144e+00,  2.36379623e+00, -2.92053199e+00,
         3.26303434e+00, -2.14322925e+00, -4.16068882e-01,
        -9.66210723e-01,  8.33359480e-01, -5.84121656e+00,
        -3.49668646e+00,  2.19597727e-01, -3.08061552e+00,
        -8.30346942e-01, -4.74819756e+00, -3.82208645e-01,
        -6.72987080e+00],
       [-9.45779324e+00, -5.49337196e+00, -7.86112690e+00,
        -5.21774578e+00, -6.19477034e+00, -5.29910278e+00,
        -3.17101441e-02, -7.74112284e-01, -1.77326469e+01,
         1.76144135e+00, -6.39672804e+00, -3.84491825e+00,
        -2.35038117e-01, -4.45649099e+00, -9.07174683e+00,
        -8.73953724e+00, -8.45010757e+00, -4.01498365e+00,
        -2.47331738e+00, -2.16401553e+00, -2.04455256e+00,
        -6.20677173e-01, -1.00365973e+01, -2.79393613e-01,
         1.03616714e+00, -8.44934940e+00, -6.63020802e+00,
        -2.36845231e+00, -6.29040813e+00, -4.65867996e+00,
         9.86937344e-01,  1.71586946e-02,  2.03205371e+00,
        -4.53130674e+00, -3.31558943e+00, -4.06501341e+00,
        -1.76453793e+00, -7.82434368e+00, -4.07297421e+00,
        -8.02615166e+00, -5.34863758e+00, -5.58649254e+00,
        -8.62752247e+00, -1.54105210e+00, -1.97825432e+01,
        -3.16756773e+00, -8.42588997e+00, -4.70369482e+00,
        -6.11347771e+00,  3.14213133e+00, -1.12574053e+01,
        -5.77814054e+00, -6.89645815e+00, -6.86580610e+00,
        -6.07296181e+00, -2.43455839e+00, -8.73796558e+00,
        -4.17307949e+00, -5.00802374e+00, -8.13600540e+00,
         1.79142445e-01, -9.70796490e+00, -4.89516068e+00,
        -9.04074955e+00]], dtype=float32), array([ -0.8241022 ,  -8.103712  , -11.931859  ,  -2.912736  ,
        -3.1215189 , -14.575967  ,   2.2173078 ,  -0.6075677 ,
       -10.093498  ,  -0.10816848,  -4.1109223 , -20.863699  ,
         1.3962344 ,   1.5310618 ,   0.45601296,  -1.6558082 ,
       -15.153223  ,   1.6871674 ,  -0.4137678 ,  -6.810019  ,
        -0.9528164 , -10.201972  ,   0.91998625, -12.1171465 ,
        -2.1087513 , -18.786095  , -20.270514  , -11.981262  ,
        -0.65188104,   1.92184   ,   1.8434519 ,  -2.1554792 ,
         3.7851932 ,   0.2398878 ,   4.005221  ,   3.151239  ,
       -14.185277  , -18.270842  ,   2.8798628 ,   0.78342414,
         1.0352412 ,  -3.1687624 , -19.092798  , -15.868515  ,
        -8.422959  ,  -9.0772915 , -17.38325   ,  -2.5397422 ,
        -4.2701583 ,  -4.199121  , -19.71723   , -11.243941  ,
       -19.4258    ,  -3.9190335 , -21.062174  , -12.261279  ,
         0.6714889 ,   2.2485354 , -20.824842  ,  -1.2329679 ,
         0.715787  ,  -1.3045257 , -21.010038  ,  -1.9582133 ],
      dtype=float32)]
[]
[array([[ 1.608925  ,  8.547114  ,  1.9960556 ],
       [ 1.3436998 ,  6.8733907 ,  0.14049228],
       [-1.5388333 , -5.269207  , -0.8521146 ],
       [-1.2091794 ,  8.001336  ,  1.5305248 ],
       [-0.71620506,  8.514314  ,  1.9395255 ],
       [-1.6479359 , -4.442451  , -1.0494585 ],
       [-1.3059707 ,  7.0715513 ,  2.3867931 ],
       [-2.481182  ,  6.511008  ,  0.15745176],
       [-0.25859937, -5.6933026 , -0.31220683],
       [-0.31049246,  6.8765287 ,  1.6518258 ],
       [-0.45882285,  8.26641   ,  1.7149156 ],
       [-3.285421  , -7.176391  , -1.7283632 ],
       [ 0.767884  ,  7.0585036 ,  2.160262  ],
       [ 2.9049313 ,  7.1917768 ,  1.1815104 ],
       [ 1.8273002 ,  8.394015  ,  2.2516205 ],
       [ 0.95560426,  8.790478  ,  1.9404813 ],
       [-1.4833034 , -5.500183  , -1.5115154 ],
       [ 3.3274157 ,  7.272145  ,  1.2934246 ],
       [ 1.8267163 ,  6.8925757 ,  1.9160767 ],
       [ 0.22543639,  6.274031  ,  0.34818038],
       [ 1.167916  ,  6.959462  ,  1.9129748 ],
       [-3.767528  ,  2.6138556 ,  1.2248578 ],
       [ 2.032494  ,  8.665077  ,  2.1394615 ],
       [-5.3112645 , -6.1894116 , -0.40252805],
       [ 0.03690917,  6.8727927 ,  1.3299681 ],
       [-1.3049012 , -5.287244  , -1.0534635 ],
       [-1.8424835 , -5.463146  , -1.2848479 ],
       [-0.8630656 ,  5.9508395 ,  1.1946146 ],
       [-0.8853923 ,  8.696877  ,  2.402579  ],
       [ 3.3665543 ,  7.4654684 ,  1.4725946 ],
       [-1.3160003 ,  6.750555  ,  1.3614551 ],
       [ 0.5743288 ,  6.750332  ,  1.1113154 ],
       [-2.175155  ,  6.6824636 ,  1.4266201 ],
       [ 5.0446725 ,  2.0974445 ,  1.2729983 ],
       [ 3.770144  ,  7.229436  ,  1.4414488 ],
       [ 4.0537667 ,  7.39314   ,  1.5809356 ],
       [-1.7043656 ,  5.8392916 ,  1.2838349 ],
       [-1.2691524 , -5.268981  , -0.95124054],
       [ 3.9288177 ,  7.388648  ,  1.4733475 ],
       [ 1.4668045 ,  8.17744   ,  2.0909057 ],
       [ 3.3342147 ,  7.4111385 ,  1.3724076 ],
       [-0.8219557 ,  8.332329  ,  1.8382636 ],
       [-1.2563545 , -5.2828608 , -1.0680494 ],
       [-3.4907174 , -6.441618  , -1.2996048 ],
       [ 0.73429316, -6.1417966 , -0.01074022],
       [ 0.50684077,  6.3205433 ,  0.47326583],
       [-1.4683301 , -5.4891915 , -1.448479  ],
       [-1.1297691 ,  7.962625  ,  1.6172287 ],
       [-0.48147777,  8.216111  ,  1.6432523 ],
       [-6.903896  , -5.3200564 ,  2.7086682 ],
       [-0.8422912 , -5.3694377 , -1.1171845 ],
       [-0.47452423,  6.007886  ,  1.058516  ],
       [-1.7764547 , -5.466573  , -1.2237622 ],
       [ 3.3491092 ,  7.7812295 ,  1.1622357 ],
       [-2.1818054 , -5.6275563 , -1.2855903 ],
       [-2.194834  , -4.564352  , -1.3134025 ],
       [ 1.6799769 ,  8.285497  ,  2.2126179 ],
       [ 3.168407  ,  7.1690717 ,  1.2539221 ],
       [-2.640162  , -5.9764805 , -1.4987395 ],
       [ 1.8680938 ,  8.148462  ,  1.9193914 ],
       [-2.404025  ,  6.6432996 ,  0.73478293],
       [ 1.2630751 ,  8.502532  ,  1.747626  ],
       [-2.3649247 , -5.685143  , -1.4174225 ],
       [ 0.87386084,  8.919432  ,  2.036432  ]], dtype=float32), array([-8.949533 , -1.1832618,  6.125765 ], dtype=float32)]
